-------------------------------------------------------------------------------
Test set: com.kmmx.springboot.restapi1.Restapi1ApplicationTests
-------------------------------------------------------------------------------
Tests run: 1, Failures: 0, Errors: 0, Skipped: 0, Time elapsed: 2.569 s - in com.kmmx.springboot.restapi1.Restapi1ApplicationTests
